[
  {
    "memberId": "0xde5654458300c112931f9be3c8fb9483ccf8e0a5359ae5c3382a376156a4a679",
    "name": "Gabriel Brack",
    "groupId": 1,
    "registrationTime": 1533416400,
    "country": "Switzerland",
    "linkedInProfile": "https://www.linkedin.com/in/gabrielbrack/"
  },
  {
    "memberId": "0x62816fe828361c63bb49ed24b572461c8e5757b7446d762b4d53a7f3edd576de",
    "name": "Simon Cocking",
    "groupId": 1,
    "registrationTime": 1538686800,
    "country": "Ireland",
    "linkedInProfile": "https://www.linkedin.com/in/simon-cocking-20540135/"
  },
  {
    "memberId": "0xcfad4bf92a1f8087b9355e9850b7dba83844642193d6a7996aa7b1e00be27b15",
    "name": "Amarpreet Singh",
    "groupId": 1,
    "registrationTime": 1538600400,
    "country": "Singapore",
    "linkedInProfile": "https://www.linkedin.com/in/amarpreetsingh2/"
  },
  {
    "memberId": "0x1a5e5c53c55190bfc1e5b721196d9e09d34bb354abb30742a9888a03d020b18a",
    "name": "Dmitry Machikhin",
    "groupId": 1,
    "registrationTime": 1533157200,
    "country": "Russia",
    "linkedInProfile": "https://www.linkedin.com/in/dmitry-machikhin-56282a77/"
  },
  {
    "memberId": "0xcac3afd4c97297a93dbfc08137e3e53692a7654039199a3da9b1d02869a2d53f",
    "name": "Ibrahim Halkano",
    "groupId": 1,
    "registrationTime": 1537909200,
    "country": "Kenya",
    "linkedInProfile": "https://www.linkedin.com/in/halkano/"
  },
  {
    "memberId": "0xfc96db10685beb6fdb795ac8b24adf2d225cdd84ead9ae9ce9d87a7f537af298",
    "name": "Maxim Vihorev",
    "groupId": 1,
    "registrationTime": 1533070800,
    "country": "Czech Republic",
    "linkedInProfile": "https://www.linkedin.com/in/vihorev/"
  },
  {
    "memberId": "0xf6d1748dc556f7353df48dd3889bf87ae31e71f65ca57ad0b27e191b7ce0dd12",
    "name": "Roberto Medrano",
    "groupId": 1,
    "registrationTime": 1539118800,
    "country": "USA",
    "linkedInProfile": "https://www.linkedin.com/in/robertomedrano/"
  },
  {
    "memberId": "0xa17a1d57b5e298a051cf3a7bbecbce4b6d7aca67a7f8990e022bc758ea87bc7d",
    "name": "Vladislav Siganevic",
    "groupId": 1,
    "registrationTime": 1533330000,
    "country": "Czech Republic",
    "linkedInProfile": "https://www.linkedin.com/in/syhanevych/"
  },
  {
    "memberId": "0xd7d39ca40f6c727d5819b9633805c1efbaa03dfbab61fdd2424407c3694d02d3",
    "name": "Mike Blackwood",
    "groupId": 1,
    "registrationTime": 1533157200,
    "country": "Czech Republic",
    "linkedInProfile": "https://www.linkedin.com/in/mikeblackwood/"
  },
  {
    "memberId": "0x3d94cf9adc0c4a7afcf0d35d6c3670ece187d9e96c5647e3fdc1c47e9f2d51d8",
    "name": "Aravinda Babu",
    "groupId": 3,
    "registrationTime": 1535058000,
    "country": "India",
    "linkedInProfile": "https://www.linkedin.com/in/linuxchip/"
  },
  {
    "memberId": "0x78f12762217fd681f93f8cfaf4a6deb1829ec5e579c727ed9339f5b3b77546cd",
    "name": "Daniele Azzaro",
    "groupId": 3,
    "registrationTime": 1534107600,
    "country": "England",
    "linkedInProfile": "https://www.linkedin.com/in/danieleazzaro/"
  },
  {
    "memberId": "0x35559c255463f91daf49a5fd8cc6433b8521174691d17ea373916b51dba2491b",
    "name": "Francis Walugembe",
    "groupId": 3,
    "registrationTime": 1537995600,
    "country": "Uganda",
    "linkedInProfile": "https://www.linkedin.com/in/francis-walugembe-85317031/"
  },
  {
    "memberId": "0xf597bc1f048a505a9036660fe75f05889acede035f5a15c581bd3fd96fb8a029",
    "name": "Jacob Ortiz",
    "groupId": 3,
    "registrationTime": 1538082000,
    "country": "Norway",
    "linkedInProfile": "https://www.linkedin.com/in/jacobohansen/"
  },
  {
    "memberId": "0x69fa7781e0fc2d80beda549fb2f478347eff29fba9d44f60341ccd460921e9c5",
    "name": "Jan Kulisek",
    "groupId": 3,
    "registrationTime": 1534280400,
    "country": "Czech Republic",
    "linkedInProfile": "https://www.linkedin.com/in/jankulisek/"
  },
  {
    "memberId": "0x041c84edfe202c850c4fc82259fc5f3a36b5578f17982a49e338a00e65a24da1",
    "name": "Gordon Jones",
    "groupId": 3,
    "registrationTime": 1538427600,
    "country": "USA",
    "linkedInProfile": "https://www.linkedin.com/in/drgordonjones/"
  },
  {
    "memberId": "0x0c1da545572b412a7f64e9ccb4cfcef5cbf4267e2f8c6ca4aa44be9030ea667f",
    "name": "Giacomo Arcaro",
    "groupId": 3,
    "registrationTime": 1539810000,
    "country": "Italy",
    "linkedInProfile": "https://www.linkedin.com/in/giacomo-arcaro-crypto/"
  },
  {
    "memberId": "0x56a0237855bd232ff2e6ee962270c2e3dc025675b66fe5422c4e55982cf3378a",
    "name": "Giovanni Casagrande",
    "groupId": 3,
    "registrationTime": 1539550800,
    "country": "Italy",
    "linkedInProfile": "https://www.linkedin.com/in/giovanni-casagrande-crypto/"
  },
  {
    "memberId": "0x3aa7e7d58db2492539bc5e79c50f3adb3bb6a8ed45c9aaad17e3a9423fa2a270",
    "name": "Giovanni Maranetto",
    "groupId": 3,
    "registrationTime": 1534280400,
    "country": "South Africa",
    "linkedInProfile": "https://www.linkedin.com/in/giovanni-lesna-maranetto-2310/"
  },
  {
    "memberId": "0xec4f80a2c00e2206e2e07a83bd7889c35688b6f13b0a336707c45ecb0ad1cbf5",
    "name": "Alex Litvinovich",
    "groupId": 3,
    "registrationTime": 1535058000,
    "country": "Russia",
    "linkedInProfile": "https://www.linkedin.com/in/alexander-litvinov-31a618132/"
  },
  {
    "memberId": "0xea34d794b887c800a37cd05ecfa7ab08086ddb5d3c986ee570bc09553fe66d36",
    "name": "Alexander Uglov",
    "groupId": 3,
    "registrationTime": 1536181200,
    "country": "Russia",
    "linkedInProfile": "https://www.linkedin.com/in/uglovs/"
  },
  {
    "memberId": "0x540c2ce90daa2e108ed2d6a0d29a504c9aebc65a6f13e67a521599896207af11",
    "name": "Christopher Butler",
    "groupId": 3,
    "registrationTime": 1534453200,
    "country": "USA",
    "linkedInProfile": "https://www.linkedin.com/in/chrisbutler702/"
  },
  {
    "memberId": "0xb6f95ffafc7564115babe27cfd7974bbb3f24ccf6956a3af9f06e352f8d252ea",
    "name": "Amir Student",
    "groupId": 3,
    "registrationTime": 1537736400,
    "country": "Israel",
    "linkedInProfile": "https://www.linkedin.com/in/amirstudent/"
  },
  {
    "memberId": "0xb89cdcd41fbdd1908c65084e29c47e6f684475d74513b6fc2b3dab404a22f7f0",
    "name": "Bonnie Normile",
    "groupId": 3,
    "registrationTime": 1540155600,
    "country": "California",
    "linkedInProfile": "https://www.linkedin.com/in/bonnie-normile-27366683/"
  },
  {
    "memberId": "0xc2f18ce2f21aebe3b91d688529186f50de2f41594a3c4ef68fa4265b19851e4a",
    "name": "Boris Otonicar",
    "groupId": 3,
    "registrationTime": 1535317200,
    "country": "Switzerland",
    "linkedInProfile": "https://www.linkedin.com/in/boris-otonicar-46842231/"
  },
  {
    "memberId": "0xd510b5ae10db4d24a2a2568d3168053dc6da82b5c014d53a89bd37990fd3c910",
    "name": "Kaori Morikawa",
    "groupId": 3,
    "registrationTime": 1534280400,
    "country": "Japan",
    "linkedInProfile": "https://www.linkedin.com/in/kaori-morikawa-258622139/"
  },
  {
    "memberId": "0x63290b0bff26091a79ac2b426aee26a3037f834c72555cd37b4f66c3debda9f9",
    "name": "Lior Zaks",
    "groupId": 3,
    "registrationTime": 1539464400,
    "country": "Israel",
    "linkedInProfile": "https://www.linkedin.com/in/lior-zaks-56aa22153/"
  },
  {
    "memberId": "0xcf9b2fd163d1bdc02a4e1edae2b103c48095c2ad61481586c0c19675b05eee45",
    "name": "Malcolm Tan",
    "groupId": 3,
    "registrationTime": 1538514000,
    "country": "Singapore",
    "linkedInProfile": "https://www.linkedin.com/in/malcolmtan/"
  },
  {
    "memberId": "0x219b61cdc0ead537e6d5469a8a22a9614303aee7b14f79ba319d9da4d974e8ed",
    "name": "Maximilian Kobernik",
    "groupId": 3,
    "registrationTime": 1537390800,
    "country": "Hong Kong",
    "linkedInProfile": "https://www.linkedin.com/in/maximilian-kobernik/"
  },
  {
    "memberId": "0xbdc4fd3d0814a8189614a0c1e9e18d5d942b0210b51f3f0f05e486499c53bc70",
    "name": "Mihai Bisnel",
    "groupId": 3,
    "registrationTime": 1536526800,
    "country": "Romania",
    "linkedInProfile": "https://www.linkedin.com/in/mihai-alexandru-bisnel-ba02ab25/"
  },
  {
    "memberId": "0xd069214143d62cf3fdf2bce3990a373539a931e33f453c4833da76dfc31dc73f",
    "name": "Mohamed Shoieb",
    "groupId": 3,
    "registrationTime": 1539205200,
    "country": "Russia",
    "linkedInProfile": "https://www.linkedin.com/in/mohamed-shoieb-4b0b1579/"
  },
  {
    "memberId": "0x5e92cf05354ca2da831b5b8452f66644b5fd1198e80dbc4e5bfb53eac1c15e2f",
    "name": "Mofassair Hossain",
    "groupId": 3,
    "registrationTime": 1534107600,
    "country": "India",
    "linkedInProfile": "https://www.linkedin.com/in/md-mofassair-hossain-515a90148/"
  },
  {
    "memberId": "0x2363e09d02f89c9e1bbbf2f233d5dcf76f445677375e48acc33469175720abd3",
    "name": "Roderick Warren",
    "groupId": 3,
    "registrationTime": 1534280400,
    "country": "Switzerland",
    "linkedInProfile": "https://www.linkedin.com/in/roderickw/"
  },
  {
    "memberId": "0xebb10cf397aaa9a03cb431d8d4c21e9c2b70c28fb68ea19e1aa504c6473ccbc5",
    "name": "Renato Almedia",
    "groupId": 3,
    "registrationTime": 1536181200,
    "country": "Brazil",
    "linkedInProfile": "https://www.linkedin.com/in/realmeidabr/"
  },
  {
    "memberId": "0xae2018e8486193f0867fde4fbe3b3fbcd474fad3197acb22647a67ea21a3d661",
    "name": "Sanem Avcil",
    "groupId": 3,
    "registrationTime": 1538427600,
    "country": "USA",
    "linkedInProfile": "https://www.linkedin.com/in/sanemavcil/"
  },
  {
    "memberId": "0x877ef28196bc429544b1244db6f2a1a8235651a1a69e80301a711550504d4db3",
    "name": "Savio Gomez",
    "groupId": 3,
    "registrationTime": 1538082000,
    "country": "Japan",
    "linkedInProfile": "https://www.linkedin.com/in/savio-gomez-capt/"
  },
  {
    "memberId": "0xdc686cd0c69b116579b0e55674ba792ec1dc853eb3788696dc584a673d97cfea",
    "name": "Shebin John",
    "groupId": 3,
    "registrationTime": 1535058000,
    "country": "India",
    "linkedInProfile": "https://www.linkedin.com/in/shebinjohn/"
  },
  {
    "memberId": "0x47f9737ff14f6c2517e5dbf8ca81a1ffb904a060d90167603ec7076022ed2a8c",
    "name": "Stanislav Sokolovsky",
    "groupId": 3,
    "registrationTime": 1536008400,
    "country": "Russia",
    "linkedInProfile": "https://www.linkedin.com/in/sokosta/"
  },
  {
    "memberId": "0x6cf6e76f3806acf4593a5f3dae8d1cbc3faa1827172f470d9c2e0e4d7026c25b",
    "name": "Thomas Enechi",
    "groupId": 3,
    "registrationTime": 1538082000,
    "country": "Nigeria",
    "linkedInProfile": "https://www.linkedin.com/in/chitom/"
  },
  {
    "memberId": "0xa6eb45e878ca9e266dc1dcb55944cc1dd8c49fd419a34369d913b2858b861386",
    "name": "Mauro Andriotto",
    "groupId": 3,
    "registrationTime": 1541106000,
    "country": "Switzerland",
    "linkedInProfile": "https://www.linkedin.com/in/mauro-andriotto-a2339a12b/"
  },
  {
    "memberId": "0x53868cac8300863abc69ebc2d13229e296497938093fe81196805ca0f03785f6",
    "name": "Jose Merino",
    "groupId": 4,
    "registrationTime": 1538341200,
    "country": "Spain",
    "linkedInProfile": "https://www.linkedin.com/in/jose-merino-b25b13/"
  },
  {
    "memberId": "0x575d177d37cb85f23657a0e846a4935db8d39bced132a017e1703ed9c73070ed",
    "name": "Kamal Mustafa",
    "groupId": 4,
    "registrationTime": 1538341200,
    "country": "India",
    "linkedInProfile": "https://www.linkedin.com/in/kamal-mustafa-7b604b15/"
  },
  {
    "memberId": "0xe695ce6c6d9d9fda28e07ab710d3da1b0a165d4b1655dd2df114dcac4389534d",
    "name": "Krishnendu Chatterjee",
    "groupId": 4,
    "registrationTime": 1539810000,
    "country": "Taiwan",
    "linkedInProfile": "https://www.linkedin.com/in/krishnendu-chatterjee-ph-d-9841ba101/"
  },
  {
    "memberId": "0xdad282a2c702f0daab6c3c4db4c6573fece9da9e9f65009c0439f53b5a2bf92a",
    "name": "Luciano Canzanella",
    "groupId": 4,
    "registrationTime": 1539637200,
    "country": "Panama",
    "linkedInProfile": "https://www.linkedin.com/in/luciano-canzanella/"
  },
  {
    "memberId": "0xef5bc6cc2688199696ee668d2c86c4bb198b22cdadf5bd73aae158bf1e558726",
    "name": "Marco Rosso",
    "groupId": 4,
    "registrationTime": 1538427600,
    "country": "Italy",
    "linkedInProfile": "https://www.linkedin.com/in/marco1976rosso/"
  },
  {
    "memberId": "0x900c94b2b51a64d6df79d423c101dceb1dd5d3b868373da20f949f14530e697e",
    "name": "Mario Pardos",
    "groupId": 4,
    "registrationTime": 1536181200,
    "country": "Spain",
    "linkedInProfile": "https://www.linkedin.com/in/mario-garc%C3%ADa-prados-67372827/"
  },
  {
    "memberId": "0xa8f99ac13363f5d7ae2a134bb99fc5593457b6ef4a52d919bac0d30b148800a5",
    "name": "Nick Nichlos",
    "groupId": 4,
    "registrationTime": 1539291600,
    "country": "UK",
    "linkedInProfile": "https://www.linkedin.com/in/nick-nichols-66087481/"
  },
  {
    "memberId": "0xef9dcb314aff7c50fccc5b18d1da6396db195ed5f3084c4b8b3ce5d01df445c8",
    "name": "Nithin Reddy",
    "groupId": 4,
    "registrationTime": 1540501200,
    "country": "India",
    "linkedInProfile": "https://www.linkedin.com/in/nithin-reddy-44a39516a"
  },
  {
    "memberId": "0x765abca646746c22123afa8f02f7eaebe49cca496425cf43493444bb68db75ec",
    "name": "Nyankomo Marwa",
    "groupId": 4,
    "registrationTime": 1540501200,
    "country": "South Africa",
    "linkedInProfile": "https://www.linkedin.com/in/nyankomo-marwa-ph-d-567555a/?originalSubdomain=za"
  },
  {
    "memberId": "0xa4b1df24b58ec527b407959bed49893f6c7932a0185974bca56c127ebfb1e02a",
    "name": "Paresh Masani",
    "groupId": 4,
    "registrationTime": 1539810000,
    "country": "UK",
    "linkedInProfile": "https://www.linkedin.com/in/masaniparesh/"
  },
  {
    "memberId": "0x22ea5026b5db3074f515906391b6f16139fcf1442290c4cae49bdb961f38078e",
    "name": "Purushotham Maralappa",
    "groupId": 4,
    "registrationTime": 1538600400,
    "country": "Japan",
    "linkedInProfile": "https://www.linkedin.com/in/purushotham-maralappa/"
  },
  {
    "memberId": "0x8ac8bd0adf16ef24e57b013e39e0b4d41ec1ad64c7fb4b4642a526d3e89120dd",
    "name": "Quentin Hebrecht",
    "groupId": 4,
    "registrationTime": 1540933200,
    "country": "France",
    "linkedInProfile": "https://www.linkedin.com/in/quentin-herbrecht-5a0a9612b/"
  },
  {
    "memberId": "0x1b9bc66a776ba9e7367fc7cbef1a20cb5c498f1fbdd2258e999a019de7e502d4",
    "name": "Qusai Sharef",
    "groupId": 4,
    "registrationTime": 1538600400,
    "country": "Palestine",
    "linkedInProfile": "https://www.linkedin.com/in/qusai-sharef-505178164/"
  },
  {
    "memberId": "0xcf22dfbe2eaad76164c1276856494287ee76cdc353b362977caf901d5e49706d",
    "name": "Ramy AlDamati",
    "groupId": 4,
    "registrationTime": 1539118800,
    "country": "UAE",
    "linkedInProfile": "https://www.linkedin.com/in/ramydamaty/"
  },
  {
    "memberId": "0xdc7ef006a50b34b9136819e908314c209f2d4436bda4d36e12b38ffd6b17d987",
    "name": "Ravi Ramharak",
    "groupId": 4,
    "registrationTime": 1536699600,
    "country": "Canada",
    "linkedInProfile": "https://www.linkedin.com/in/raviramharak/"
  },
  {
    "memberId": "0xaa76c1b0bc797de5dba8b5e6bd900aaa5dc1365a5d841cc468ced4548490ddca",
    "name": "Roman Karimov",
    "groupId": 4,
    "registrationTime": 1539205200,
    "country": "Russia",
    "linkedInProfile": "https://www.linkedin.com/in/ego97516/"
  },
  {
    "memberId": "0x306794bc0dda119f9b0306e5543975c7065e08fa46fb8d38ae30ba7fea7b2c55",
    "name": "Samson Li",
    "groupId": 4,
    "registrationTime": 1538686800,
    "country": "Hong Kong",
    "linkedInProfile": "https://www.linkedin.com/in/samson-li-87b10533/"
  },
  {
    "memberId": "0xca63665ddf6943a1af4bb48882f3d028239fd10e8c547901669195152cec587e",
    "name": "Sindhu Bhaskar",
    "groupId": 4,
    "registrationTime": 1539118800,
    "country": "Switzerland",
    "linkedInProfile": "https://www.linkedin.com/in/sindhu-bhaskar-55a84568/"
  },
  {
    "memberId": "0x8257249ab4b053910063ed04c0136d62bdc038a7df84a3fc07014763a2dfb390",
    "name": "Stephan De Haes",
    "groupId": 4,
    "registrationTime": 1538514000,
    "country": "Belgium",
    "linkedInProfile": "https://www.linkedin.com/in/stephan-de-haes-34265514a/"
  },
  {
    "memberId": "0x790a9f52208e372644d5f910815096018c5459cfbabc25403c28a00613d51434",
    "name": "Steven Martins",
    "groupId": 4,
    "registrationTime": 1540242000,
    "country": "Portugal",
    "linkedInProfile": "https://www.linkedin.com/in/stevenmartins/"
  },
  {
    "memberId": "0xf8b0d9432521ca35f178c0e54c66c5fdb5b5dd5cd5a0fedc95469fa4bf84fdb1",
    "name": "Tim Mak",
    "groupId": 4,
    "registrationTime": 1538427600,
    "country": "Slovenia",
    "linkedInProfile": "https://www.linkedin.com/in/tim-mak-startsy/"
  },
  {
    "memberId": "0x9d4cd80d1ccba1ac76b80c21b87a891832d038515d4698111edd5b287e3af17b",
    "name": "Timo Trippler",
    "groupId": 4,
    "registrationTime": 1539118800,
    "country": "Germany",
    "linkedInProfile": "https://www.linkedin.com/in/timotrippler/"
  },
  {
    "memberId": "0xdeeabb18ccda3bbf516689ea0ecaec50d9ac5d41c3cdfc402894e1583763512a",
    "name": "Michael Pickens",
    "groupId": 4,
    "registrationTime": 1539637200,
    "country": "USA",
    "linkedInProfile": "https://www.linkedin.com/in/pickensmichael/"
  },
  {
    "memberId": "0x617135676528a1ed94b3b52ccc1f49e54844d8624cc26f121c3214858a958626",
    "name": "Dan Litwak",
    "groupId": 4,
    "registrationTime": 1538686800,
    "country": "Israel",
    "linkedInProfile": "https://www.linkedin.com/in/dan-litwak-hawksec/"
  },
  {
    "memberId": "0xd725c43696cd28f0b3613c65cf9860bf574bcb611023b8e6dc23e340d932fe7f",
    "name": "Bryan Cutter",
    "groupId": 4,
    "registrationTime": 1539550800,
    "country": "Singapore",
    "linkedInProfile": "https://www.linkedin.com/in/bryancutter1337/"
  },
  {
    "memberId": "0x77c9af51138f6cac6e8dc3965ff0e81bd26204c2fe8338bbac8e0812f9d66d24",
    "name": "Alvaro Rivero",
    "groupId": 4,
    "registrationTime": 1535922000,
    "country": "Russia",
    "linkedInProfile": "https://www.linkedin.com/in/alvaro-rivero-b8aa5268/"
  },
  {
    "memberId": "0x5cf4cafa73d4d319553764ed4d74f02db091a6506ffca9d9a3e82e492a526f4e",
    "name": "Abiodun Ayorinde",
    "groupId": 4,
    "registrationTime": 1540328400,
    "country": "Nigeria",
    "linkedInProfile": "https://www.linkedin.com/in/biodunayorinde/"
  },
  {
    "memberId": "0xbf54215f4490851d94c78735c0dff51aa2c629f5e509de0b0517ce071896d1ef",
    "name": "Adam Little",
    "groupId": 4,
    "registrationTime": 1540501200,
    "country": "UK",
    "linkedInProfile": "https://www.linkedin.com/in/adam-little-253403147/"
  },
  {
    "memberId": "0x819867ebed9ddca2baa65020460362a6e5313b13eb695677d4f7e34b62ec6bbe",
    "name": "Antonio Caspari",
    "groupId": 4,
    "registrationTime": 1539810000,
    "country": "Switzerland",
    "linkedInProfile": "https://www.linkedin.com/in/antonio-caspari-698160169/"
  },
  {
    "memberId": "0x33eb8df57ad7a3f38dedf9f371bac0be3a050034eda78cff4ccc22968b11e158",
    "name": "Antoshi Popov",
    "groupId": 4,
    "registrationTime": 1538686800,
    "country": "Russia",
    "linkedInProfile": "https://www.linkedin.com/in/antonpopov/"
  },
  {
    "memberId": "0xbe389c1cc3b28fb8bee8078a80beb00bb1536b54834004c96a08b3afef222255",
    "name": "Antoun Toubia",
    "groupId": 4,
    "registrationTime": 1540242000,
    "country": "Jordan",
    "linkedInProfile": "https://www.linkedin.com/in/icoadviser/"
  },
  {
    "memberId": "0x3ab6fbbffce959d0f1b461dac345c1585b04dd437dcdfcd73fa3d3308c2887b7",
    "name": "Arthur Zubkoff",
    "groupId": 4,
    "registrationTime": 1534280400,
    "country": "UK",
    "linkedInProfile": "https://www.linkedin.com/in/arthurzubkoff/"
  },
  {
    "memberId": "0x30d4a10839a5b471c5fdc26781dbe7727ccbf8fcbb770b4e3dd811d2693a64ee",
    "name": "Ashutosh Bhatt",
    "groupId": 4,
    "registrationTime": 1540501200,
    "country": "India",
    "linkedInProfile": "https://www.linkedin.com/in/ashutosh-bhatt2911/"
  },
  {
    "memberId": "0x15b38a7e0eff34485e430c251f3465e15d565b17ffb8838a0d38c697cd8829e2",
    "name": "Asim Hasanov",
    "groupId": 4,
    "registrationTime": 1535058000,
    "country": "Austria",
    "linkedInProfile": "https://www.linkedin.com/in/asim-hasanov-12a7a610a/"
  },
  {
    "memberId": "0x80d32db8130590c20983eae36a0610be2aa534ea04fffb9df5076ff35fe02877",
    "name": "Federico Vigano",
    "groupId": 4,
    "registrationTime": 1539118800,
    "country": "Switzerland",
    "linkedInProfile": "https://www.linkedin.com/in/federicovigano/"
  },
  {
    "memberId": "0xe03503196f31e5cb894c9e04e266ef552d96797c97a18dd0c9121ca98d445a34",
    "name": "Genevieve Leveille",
    "groupId": 4,
    "registrationTime": 1540328400,
    "country": "UK",
    "linkedInProfile": "https://www.linkedin.com/in/genevieveleveille/"
  },
  {
    "memberId": "0x7b30aaa149241db04bdf33d1c7241d1cdc7269cab0f5bc9603280c7a84d19ed5",
    "name": "Igor Marcos",
    "groupId": 4,
    "registrationTime": 1534107600,
    "country": "Brazil",
    "linkedInProfile": "https://www.linkedin.com/in/igormuba/"
  },
  {
    "memberId": "0x7a130487a7afc05154ace3d55a7d86f1a7529829be40134bcb6ba36fe5f4414f",
    "name": "Ilya Orlov",
    "groupId": 4,
    "registrationTime": 1535058000,
    "country": "Russia",
    "linkedInProfile": "https://www.linkedin.com/in/ilya-orlov-0123ba80/"
  },
  {
    "memberId": "0x9ffefd94472e2baad593b0190c5e9a51ba1f372aa9e0fdba9f9a533a8d92b749",
    "name": "Janis Pranevics",
    "groupId": 4,
    "registrationTime": 1538341200,
    "country": "Latvia",
    "linkedInProfile": "https://www.linkedin.com/in/jpranevics/"
  },
  {
    "memberId": "0x96d258e5d51859c7315822b490b837eee4871d2d5e6e6833a5e710fafbef62a5",
    "name": "Jason Meng",
    "groupId": 4,
    "registrationTime": 1539291600,
    "country": "Canada",
    "linkedInProfile": "https://www.linkedin.com/in/jason-meng-69101a147/"
  },
  {
    "memberId": "0xc972c09a4020bd8867b65fc4678bd2efbf5132fb9d51ef736191797aeca77905",
    "name": "JC Awe",
    "groupId": 4,
    "registrationTime": 1537736400,
    "country": "Singapore",
    "linkedInProfile": "https://www.linkedin.com/in/qjawe/"
  },
  {
    "memberId": "0x0016e7c6e3b08f837184d5f029bcb90684d8d89de7a768fc10bff20759cb503d",
    "name": "Jeremy Khoo",
    "groupId": 4,
    "registrationTime": 1539896400,
    "country": "Singapore",
    "linkedInProfile": "https://www.linkedin.com/in/jeremy-khoo/"
  },
  {
    "memberId": "0x303848ae48ab3702147d6506318218dfb498f26aee5dd816fba03ba1e29217f3",
    "name": "Joey Jones",
    "groupId": 4,
    "registrationTime": 1540242000,
    "country": "USA",
    "linkedInProfile": "https://www.linkedin.com/in/joey-jones-01/"
  },
  {
    "memberId": "0x8f0ec307237aa21ec164f8c74e680ee69d8009032eaf3c3fe91010846f09c211",
    "name": "William Quek",
    "groupId": 4,
    "registrationTime": 1540501200,
    "country": "Singapore",
    "linkedInProfile": "https://www.linkedin.com/in/william-quek-9a7a64134/"
  },
  {
    "memberId": "0x9befc7cb5fa99f31acaa82bc7c89be08ec652822ed3605c1aa81a698594e7ab2",
    "name": "Yao Min Ng",
    "groupId": 4,
    "registrationTime": 1540933200,
    "country": "Singapore",
    "linkedInProfile": "https://www.linkedin.com/in/ngyaomin/"
  },
  {
    "memberId": "0xee11a372c5c10158d7e4d3a42af15b3e1ba95c858c3764590cf7d8898e091097",
    "name": "Toomas Allmere",
    "groupId": 4,
    "registrationTime": 1536094800,
    "country": "Estonia",
    "linkedInProfile": "https://www.linkedin.com/in/toomas-allmere/"
  },
  {
    "memberId": "0xb9db26165c7e1f8ea5e4190abef962f0b9507718544a1bff71e9c5ec42f49b09",
    "name": "Vladimir Malakchi",
    "groupId": 4,
    "registrationTime": 1540501200,
    "country": "Russia",
    "linkedInProfile": "https://www.linkedin.com/in/vmalakchi/"
  },
  {
    "memberId": "0xf04c054a707005df88bc4736e66a385497262312cb09234cb9db3894c3d1593d",
    "name": "Bas Geelen",
    "groupId": 4,
    "registrationTime": 1541106000,
    "country": "Netherlands",
    "linkedInProfile": "https://www.linkedin.com/in/bas-geelen-2505b6a3/"
  },
  {
    "memberId": "0x8019def62450c0cf15ba44d8ae33dfec3ac95bb26b6a40534702c66d425b2204",
    "name": "Cem Ozargun",
    "groupId": 4,
    "registrationTime": 1541106000,
    "country": "Turkey",
    "linkedInProfile": "https://www.linkedin.com/in/cem-goksel-ozargun/"
  },
  {
    "memberId": "0x86e272e85f73ff8498f89fbcff14f8eddd41cdd95bd2ed141bbcdcedee45a40f",
    "name": "Hieu Tran",
    "groupId": 4,
    "registrationTime": 1541106000,
    "country": "Norway",
    "linkedInProfile": "https://www.linkedin.com/in/hieu-tran-71487816/"
  },
  {
    "memberId": "0xfc849fcb8522a8a03a9f87e4de558593e407593bd5d98c63610836a6bd64a0de",
    "name": "Radi Sajad",
    "groupId": 4,
    "registrationTime": 1541106000,
    "country": "Sweden",
    "linkedInProfile": "https://www.linkedin.com/in/radi-sajad-3b1a2116a/"
  },
  {
    "memberId": "0xd40bd323db503e66bade785c004b6cf6ccf5691b7f9aaf6408276a67ccc16cfe",
    "name": "Guillaume Micouin",
    "groupId": 4,
    "registrationTime": 1541106000,
    "country": "france",
    "linkedInProfile": "https://www.linkedin.com/in/guillaume-micouin-505209136/"
  },
  {
    "memberId": "0xf920fe7bf192dc9f3bba26bc686e0dd037b183c5dd2efb3836f6a0a6ee09daad",
    "name": "Juan Aguero",
    "groupId": 4,
    "registrationTime": 1541106000,
    "country": "Spain",
    "linkedInProfile": "https://www.linkedin.com/in/estucrypto/"
  },
  {
    "memberId": "0xfd30344bafc1116cc8dcb7020882407dda3a509e0443e3b9dba1fb5755f84f7f",
    "name": "Saurabh Nandoskar",
    "groupId": 4,
    "registrationTime": 1541106000,
    "country": "India",
    "linkedInProfile": "https://www.linkedin.com/in/saurabh-nandoskar/"
  },
  {
    "memberId": "0xa95a01a0be204ad93a9219ab153c98d5da73175cc2b82425fc70230b929be2ed",
    "name": "Mudaser Iqbal",
    "groupId": 4,
    "registrationTime": 1541106000,
    "country": "Pakistan",
    "linkedInProfile": "https://www.linkedin.com/in/mudaseriqbal/"
  },


  {
    "memberId": "0xab0bc93f8ed8f8ebf36055d6c25d28fc815c1df241a4bc33ea217eebc2d880bb",
    "name": "Sydney Ifergan",
    "groupId": 3,
    "registrationTime": 1541970000,
    "country": "Cyprus",
    "linkedInProfile": "https://www.linkedin.com/in/sydneyifergan/",
    "photoUrl": "/high1000/photos/Sydney Ifergan.jpg"
  },
  {
    "memberId": "0x5a6d383697d8655679a1ecf9f57c3dda80ba5d0bbd2c79fa5524818beb0d36da",
    "name": "Gaurav Chakraverti",
    "groupId": 3,
    "registrationTime": 1541970000,
    "country": "India",
    "linkedInProfile": "https://www.linkedin.com/in/gaurav-areng-chakraverti/",
    "photoUrl": "/high1000/photos/Gaurav Chakraverti.jpg"
  },
  {
    "memberId": "0xd40bd323db503e66bade785c004b6cf6ccf5691b7f9aaf6408276a67ccc16cfe",
    "name": "Guillaume Micouin",
    "groupId": 4,
    "registrationTime": 1541106000,
    "country": "france",
    "linkedInProfile": "https://www.linkedin.com/in/guillaume-micouin-505209136/",
    "photoUrl": "/high1000/photos/Guillaume Micouin.jpg"
  },
  {
    "memberId": "0xbc23c5b81aa04f8358a08dc72d44647862533b5518b3c1d7b0161c62403ddc0f",
    "name": "Eloisa Marchesoni",
    "groupId": 4,
    "registrationTime": 1541970000,
    "country": "Italy",
    "linkedInProfile": "https://www.linkedin.com/in/eloisa-marchesoni-blockchain/",
    "photoUrl": "/high1000/photos/Eloisa Marchesoni.jpg"
  },
  {
    "memberId": "0x3ac41bc2a9ec48c7baa496a8d8c83b384227e720b56fa849e21575554383f8d1",
    "name": "Abhijith Naraparaju",
    "groupId": 4,
    "registrationTime": 1541970000,
    "country": "India",
    "linkedInProfile": "https://www.linkedin.com/in/abhijith-naraparaju-b517006a/",
    "photoUrl": "/high1000/photos/Abhijith Naraparaju.jpg"
  },
  {
    "memberId": "0x10207e7ba3bd3b4fc3f10808dbf177c538232da7c559768538df1d9bcbb7d398",
    "name": "Alexandre Orfevre",
    "groupId": 4,
    "registrationTime": 1541970000,
    "country": "India",
    "linkedInProfile": "https://www.linkedin.com/in/aorfevre/",
    "photoUrl": "/high1000/photos/Alexandre Orfevre.jpg"
  },
  {
    "memberId": "0x1de02e18e6613f9be8920239e6b346d0c1c8be78aa9e64d44d64753899d8a359",
    "name": "Ronny Lee",
    "groupId": 4,
    "registrationTime": 1541970000,
    "country": "Singapore",
    "linkedInProfile": "https://www.linkedin.com/in/ronny-lee-b9761b57",
    "photoUrl": "/high1000/photos/Ronny Lee.jpg"
  },
  {
    "memberId": "0xd1487751df88682e9dfbb6c96b5af595a83950134d6800a5456c1f6684bda7a8",
    "name": "Manav Kalra",
    "groupId": 4,
    "registrationTime": 1541710800,
    "country": "India",
    "linkedInProfile": "https://www.linkedin.com/in/manav-kalra-%F0%9F%9A%80-6608b3162/",
    "photoUrl": "/high1000/photos/Manav Kalra.jpg"
  },
  {
    "memberId": "0xccf1b30f68c3eb5b95ce16ee81f991c7901e7df0e360ad649acce1851133b60a",
    "name": "Gianluca Guerra",
    "groupId": 4,
    "registrationTime": 1541710800,
    "country": "Italy",
    "linkedInProfile": "https://www.linkedin.com/in/gianlucaguerra/",
    "photoUrl": "/high1000/photos/Gianluca Guerra.jpg"
  },
  {
    "memberId": "0x4bb8a5d634b2c0656b0998b121f3c9d30cb8f7f70ba4d10e25dbc32c81d06289",
    "name": "Vladimir Denis",
    "groupId": 4,
    "registrationTime": 1541710800,
    "country": "France",
    "linkedInProfile": "https://www.linkedin.com/in/vladimir-denis-291706131/?locale=en_US",
    "photoUrl": "/high1000/photos/Vladimir Denis.jpg"
  },
  {
    "memberId": "0xfbcf0accac9b834152b697650e6b62c32f2f11486f33f4c9a19cdd4f0e92c90b",
    "name": "David Tacer",
    "groupId": 4,
    "registrationTime": 1541970000,
    "country": "Solvenia",
    "linkedInProfile": "https://www.linkedin.com/in/davidtacer/",
    "photoUrl": "/high1000/photos/David Tacer.jpg"
  }

]
